<?xml version="1.0" encoding="UTF-8"?>
<robot generated="20170323 19:09:29.842" generator="Robot 3.0.2 (Python 2.7.10 on darwin)">
<suite source="/Users/hofmanix/Projects/Skola/pythonproject/Tests/Smoke_Tests/google.robot" id="s1" name="Google">
<test id="s1-t1" name="VSE Test">
<kw type="setup" name="Velky Hnedy Trpaslik" library="Google_Keywords">
<arguments>
<arg>https://www.google.com</arg>
<arg>gc</arg>
</arguments>
<kw name="Open Browser" library="Selenium2Library">
<doc>Opens a new browser instance to given URL.</doc>
<arguments>
<arg>${urlPar}</arg>
<arg>${browserPar}</arg>
</arguments>
<msg timestamp="20170323 19:09:30.077" level="INFO">Opening browser 'gc' to base url 'https://www.google.com'</msg>
<status status="PASS" endtime="20170323 19:09:33.084" starttime="20170323 19:09:30.077"></status>
</kw>
<kw name="Maximize Browser Window" library="Selenium2Library">
<doc>Maximizes current browser window.</doc>
<status status="PASS" endtime="20170323 19:09:33.585" starttime="20170323 19:09:33.085"></status>
</kw>
<kw name="Wait Until Element Is Visible" library="Selenium2Library">
<doc>Waits until element specified with `locator` is visible.</doc>
<arguments>
<arg>${googleLogo}</arg>
</arguments>
<status status="PASS" endtime="20170323 19:09:33.620" starttime="20170323 19:09:33.585"></status>
</kw>
<status status="PASS" endtime="20170323 19:09:33.620" starttime="20170323 19:09:30.077"></status>
</kw>
<kw name="Mala Zluta Krava" library="Google_Keywords">
<arguments>
<arg>${searchWord}</arg>
<arg>${toSearchElement}</arg>
</arguments>
<kw name="Input Text" library="Selenium2Library">
<doc>Types the given `text` into text field identified by `locator`.</doc>
<arguments>
<arg>${searchInput}</arg>
<arg>${toSearch}</arg>
</arguments>
<msg timestamp="20170323 19:09:33.621" level="INFO">Typing text 'VŠE' into text field 'id=lst-ib'</msg>
<status status="PASS" endtime="20170323 19:09:33.741" starttime="20170323 19:09:33.621"></status>
</kw>
<kw name="Wait Until Element Is Visible" library="Selenium2Library">
<doc>Waits until element specified with `locator` is visible.</doc>
<arguments>
<arg>${searchButton}</arg>
</arguments>
<status status="PASS" endtime="20170323 19:09:33.782" starttime="20170323 19:09:33.741"></status>
</kw>
<kw name="Click Button" library="Selenium2Library">
<doc>Clicks a button identified by `locator`.</doc>
<arguments>
<arg>${searchButton}</arg>
</arguments>
<msg timestamp="20170323 19:09:33.783" level="INFO">Clicking button 'id=_fZl'.</msg>
<status status="PASS" endtime="20170323 19:09:33.872" starttime="20170323 19:09:33.782"></status>
</kw>
<kw name="Wait Until Element Is Visible" library="Selenium2Library">
<doc>Waits until element specified with `locator` is visible.</doc>
<arguments>
<arg>${searchElement}</arg>
</arguments>
<status status="PASS" endtime="20170323 19:09:35.032" starttime="20170323 19:09:33.872"></status>
</kw>
<status status="PASS" endtime="20170323 19:09:35.032" starttime="20170323 19:09:33.621"></status>
</kw>
<kw name="Click Link" library="Selenium2Library">
<doc>Clicks a link identified by locator.</doc>
<arguments>
<arg>${toSearchElement}</arg>
</arguments>
<msg timestamp="20170323 19:09:35.033" level="INFO">Clicking link 'xpath=//a[contains(@href, 'www.vse.cz')]'.</msg>
<status status="PASS" endtime="20170323 19:09:36.115" starttime="20170323 19:09:35.033"></status>
</kw>
<kw name="Location Should Be" library="Selenium2Library">
<doc>Verifies that current URL is exactly `url`.</doc>
<arguments>
<arg>${vseURL}</arg>
</arguments>
<msg timestamp="20170323 19:09:36.123" level="INFO">Current location is 'https://www.vse.cz/?lang=en'.</msg>
<status status="PASS" endtime="20170323 19:09:36.123" starttime="20170323 19:09:36.116"></status>
</kw>
<kw type="teardown" name="Close All Browsers" library="Selenium2Library">
<doc>Closes all open browsers and resets the browser cache.</doc>
<status status="PASS" endtime="20170323 19:09:36.198" starttime="20170323 19:09:36.123"></status>
</kw>
<status status="PASS" endtime="20170323 19:09:36.198" critical="yes" starttime="20170323 19:09:30.076"></status>
</test>
<status status="PASS" endtime="20170323 19:09:36.199" starttime="20170323 19:09:29.846"></status>
</suite>
<statistics>
<total>
<stat fail="0" pass="1">Critical Tests</stat>
<stat fail="0" pass="1">All Tests</stat>
</total>
<tag>
</tag>
<suite>
<stat fail="0" id="s1" name="Google" pass="1">Google</stat>
</suite>
</statistics>
<errors>
</errors>
</robot>
